<svg xmlns="http://www.w3.org/2000/svg" width="20" height="20.03" viewBox="0 0 20 20.03">
  <metadata><?xpacket begin="﻿" id="W5M0MpCehiHzreSzNTczkc9d"?>
<x:xmpmeta xmlns:x="adobe:ns:meta/" x:xmptk="Adobe XMP Core 5.6-c138 79.159824, 2016/09/14-01:09:01        ">
   <rdf:RDF xmlns:rdf="http://www.w3.org/1999/02/22-rdf-syntax-ns#">
      <rdf:Description rdf:about=""/>
   </rdf:RDF>
</x:xmpmeta>
                                                                                                    
                                                                                                    
                                                                                                    
                                                                                                    
                                                                                                    
                                                                                                    
                                                                                                    
                                                                                                    
                                                                                                    
                                                                                                    
                                                                                                    
                                                                                                    
                                                                                                    
                                                                                                    
                                                                                                    
                                                                                                    
                                                                                                    
                                                                                                    
                                                                                                    
                                                                                                    
                           
<?xpacket end="w"?></metadata>
<defs>
    <style>
      .cls-1 {
        fill: #f5989d;
        fill-rule: evenodd;
      }
    </style>
  </defs>
  <path id="Dribbble_Icon" data-name="Dribbble Icon" class="cls-1" d="M838.657,1885.09a10.005,10.005,0,1,1,10-10.01A10,10,0,0,1,838.657,1885.09Zm6.688-12.83a6.986,6.986,0,0,0-.67-1.24,7.574,7.574,0,0,0-.885-1.07,7.2,7.2,0,0,0-2.308-1.56,6.551,6.551,0,0,0-1.363-.42,7.2,7.2,0,0,0-2.924,0,6.541,6.541,0,0,0-1.364.42,7.214,7.214,0,0,0-2.307,1.56,7.65,7.65,0,0,0-.886,1.07,7.112,7.112,0,0,0-.669,1.24,6.933,6.933,0,0,0-.424,1.36,7.379,7.379,0,0,0-.147,1.46,7.273,7.273,0,0,0,.571,2.83,7.022,7.022,0,0,0,.669,1.23,7.07,7.07,0,0,0,1.96,1.96,6.608,6.608,0,0,0,1.233.67,7.228,7.228,0,0,0,1.364.43,7.2,7.2,0,0,0,2.924,0,7.242,7.242,0,0,0,1.363-.43,6.616,6.616,0,0,0,1.234-.67,7.237,7.237,0,0,0,1.074-.88,7.127,7.127,0,0,0,.885-1.08,6.9,6.9,0,0,0,.67-1.23,7.316,7.316,0,0,0,.423-1.37,7.232,7.232,0,0,0,.148-1.46,7.305,7.305,0,0,0-.148-1.46A7,7,0,0,0,845.345,1872.26Zm-4.809,2.56c-0.043-.11-0.088-0.22-0.133-0.32-0.129-.31-0.268-0.61-0.412-0.9a7.934,7.934,0,0,0,3.453-2.46,6.2,6.2,0,0,1,1.41,3.88A14.308,14.308,0,0,0,840.536,1874.82Zm-1.023-2.15a32.077,32.077,0,0,0-2.317-3.62,6.378,6.378,0,0,1,1.461-.17,6.136,6.136,0,0,1,4.094,1.55A6.814,6.814,0,0,1,839.513,1872.67Zm-6.922,1.13a6.214,6.214,0,0,1,3.421-4.33,37.542,37.542,0,0,1,2.3,3.58A22.406,22.406,0,0,1,832.591,1873.8Zm4.58-4.74h0Zm1.656,4.94c0.178,0.35.348,0.7,0.5,1.06a2.236,2.236,0,0,0-.244.07,9.8,9.8,0,0,0-5.042,4.09,0.036,0.036,0,0,0,0,.01,6.185,6.185,0,0,1-1.588-4.15c0-.06,0-0.13,0-0.2A22.137,22.137,0,0,0,838.827,1874Zm0.885,2.1c0.013-.01.027-0.01,0.041-0.02a25.948,25.948,0,0,1,1.324,4.71,6.105,6.105,0,0,1-2.42.49,6.168,6.168,0,0,1-3.809-1.31A8.359,8.359,0,0,1,839.712,1876.1Zm-4.865,3.87s-0.057-.04-0.139-0.11c0.045,0.04.094,0.07,0.14,0.11h0Zm9.93-3.9a6.22,6.22,0,0,1-2.656,4.16,26.564,26.564,0,0,0-1.207-4.43A8.847,8.847,0,0,1,844.777,1876.07Z" transform="translate(-828.656 -1865.06)"/>
</svg>
