<svg xmlns="http://www.w3.org/2000/svg" xmlns:xlink="http://www.w3.org/1999/xlink" width="22.063" height="36" viewBox="0 0 22.063 36">
  <metadata><?xpacket begin="﻿" id="W5M0MpCehiHzreSzNTczkc9d"?>
<x:xmpmeta xmlns:x="adobe:ns:meta/" x:xmptk="Adobe XMP Core 5.6-c138 79.159824, 2016/09/14-01:09:01        ">
   <rdf:RDF xmlns:rdf="http://www.w3.org/1999/02/22-rdf-syntax-ns#">
      <rdf:Description rdf:about=""/>
   </rdf:RDF>
</x:xmpmeta>
                                                                                                    
                                                                                                    
                                                                                                    
                                                                                                    
                                                                                                    
                                                                                                    
                                                                                                    
                                                                                                    
                                                                                                    
                                                                                                    
                                                                                                    
                                                                                                    
                                                                                                    
                                                                                                    
                                                                                                    
                                                                                                    
                                                                                                    
                                                                                                    
                                                                                                    
                                                                                                    
                           
<?xpacket end="w"?></metadata>
<defs>
    <style>
      .cls-1 {
        fill: #fff;
        fill-rule: evenodd;
        filter: url(#filter);
      }
    </style>
    <filter id="filter" x="459" y="536" width="22.063" height="36" filterUnits="userSpaceOnUse">
      <feOffset result="offset" dy="1" in="SourceAlpha"/>
      <feGaussianBlur result="blur"/>
      <feFlood result="flood" flood-color="#fff"/>
      <feComposite result="composite" operator="in" in2="blur"/>
      <feBlend result="blend" in="SourceGraphic"/>
      <feFlood result="flood-2" flood-color="#86bbc1"/>
      <feComposite result="composite-2" operator="in" in2="SourceGraphic"/>
      <feBlend result="blend-2" in2="blend"/>
      <feGaussianBlur result="blur-2" in="SourceAlpha"/>
      <feFlood result="flood-3" flood-color="#675d53" flood-opacity="0.19"/>
      <feComposite result="composite-3" operator="out" in2="blur-2"/>
      <feOffset result="offset-2" dy="1"/>
      <feComposite result="composite-4" operator="in" in2="SourceAlpha"/>
      <feBlend result="blend-3" mode="multiply" in2="blend-2"/>
    </filter>
  </defs>
  <path id="innovation_icon" data-name="innovation icon" class="cls-1" d="M472.981,553.89l7.979,13.428a3,3,0,0,1-2.119,3.67H461.2a3,3,0,0,1-2.119-3.67l6.911-13.451L466.006,546h-0.482a1.5,1.5,0,0,1,0-3h7.993a1.5,1.5,0,1,1,0,3h-0.551l0.014,7.87v0.024ZM472.019,545h1.5a0.5,0.5,0,1,0,0-1h-7.993a0.5,0.5,0,0,0,0,1h1.5L467,553.905l-6.946,13.616a2,2,0,0,0,1.412,2.446l17.107,0.019a2,2,0,0,0,1.413-2.447l-7.939-13.667Zm6.218,24.045h-16.5a1,1,0,0,1-.706-1.224l4.967-9.79s1.5-2,3.561,0a2.39,2.39,0,0,0,3.79,0l5.592,9.79A1,1,0,0,1,478.237,569.043ZM471.5,540.5a1,1,0,1,1-1,1A1,1,0,0,1,471.5,540.5Zm0-4.5a1.5,1.5,0,1,1-1.5,1.5A1.5,1.5,0,0,1,471.5,536Zm-4,3.5a1,1,0,1,1-1,1A1,1,0,0,1,467.5,539.5Z" transform="translate(-459 -536)"/>
</svg>
